…
This is an incredibly rich data set. I have only kept the 20 most common
quantitative measurements, but there are so many more. I have kept this
data set in the long format, because there is very spotty measuring.

``` r
water_quality |> 
  group_by(characteristic_name) |> 
  summarize(n = n()) |> 
  arrange(desc(n))
```

    ## # A tibble: 21 × 2
    ##    characteristic_name            n
    ##    <chr>                      <int>
    ##  1 Calcium mg/l                1682
    ##  2 Magnesium mg/l              1682
    ##  3 Sodium mg/l                 1636
    ##  4 Potassium mg/l              1635
    ##  5 pH                          1307
    ##  6 Temperature, water deg C    1292
    ##  7 Specific conductance uS/cm  1287
    ##  8 Arsenic mg/l                1219
    ##  9 Dissolved oxygen (DO) mg/l  1177
    ## 10 Chloride mg/l               1131
    ## # ℹ 11 more rows
…
