…
    Rows: 104913 Columns: 7
    ── Column specification ────────────────────────────────────────────────────────
    Delimiter: ","
    dbl (7): elk_id, year, month, day, hour, lat, long

    ℹ Use `spec()` to retrieve the full column specification for this data.
    ℹ Specify the column types or set `show_col_types = FALSE` to quiet this message.

``` r
elk_df
```

    # A tibble: 104,913 × 7
       elk_id  year month   day  hour   lat  long
        <dbl> <dbl> <dbl> <dbl> <dbl> <dbl> <dbl>
     1    572  2006     3     1    18  43.8 -110.
     2    572  2006     3     1    20  43.8 -110.
     3    572  2006     3     1    22  43.8 -110.
     4    572  2006     3     2     0  43.8 -110.
     5    572  2006     3     2     2  43.8 -110.
     6    572  2006     3     2     4  43.8 -110.
     7    572  2006     3     2     6  43.8 -110.
     8    572  2006     3     2     8  43.8 -110.
     9    572  2006     3     2    10  43.8 -110.
    10    572  2006     3     2    12  43.8 -110.
    # ℹ 104,903 more rows
…
